Differential chromatin accessibility and gene expression
…
Rows: 24 Columns: 13

── Column specification ────────────────────────────────────────────────────────────────────────────
Delimiter: ","
chr (10): names, sample_id, line_id, condition_name, macrophage_harvest, salmonella_date, rna_ex...
dbl  (3): replicate, ng_ul_mean, rna_auto

ℹ Use `spec()` to retrieve the full column specification for this data.
ℹ Specify the column types or set `show_col_types = FALSE` to quiet this message.

coldata

# A tibble: 24 × 5
   names          id     line   condition   files                                                   
   <chr>          <chr>  <fct>  <fct>       <chr>                                                   
 1 SAMEA103885102 diku_A diku_1 naive       /Library/Frameworks/R.framework/Versions/4.4-arm64/Reso…
 2 SAMEA103885347 diku_B diku_1 IFNg        /Library/Frameworks/R.framework/Versions/4.4-arm64/Reso…
 3 SAMEA103885043 diku_C diku_1 SL1344      /Library/Frameworks/R.framework/Versions/4.4-arm64/Reso…
 4 SAMEA103885392 diku_D diku_1 IFNg_SL1344 /Library/Frameworks/R.framework/Versions/4.4-arm64/Reso…
 5 SAMEA103885182 eiwy_A eiwy_1 naive       /Library/Frameworks/R.framework/Versions/4.4-arm64/Reso…
 6 SAMEA103885136 eiwy_B eiwy_1 IFNg        /Library/Frameworks/R.framework/Versions/4.4-arm64/Reso…
 7 SAMEA103885413 eiwy_C eiwy_1 SL1344      /Library/Frameworks/R.framework/Versions/4.4-arm64/Reso…
 8 SAMEA103884967 eiwy_D eiwy_1 IFNg_SL1344 /Library/Frameworks/R.framework/Versions/4.4-arm64/Reso…
 9 SAMEA103885368 fikt_A fikt_3 naive       /Library/Frameworks/R.framework/Versions/4.4-arm64/Reso…
10 SAMEA103885218 fikt_B fikt_3 IFNg        /Library/Frameworks/R.framework/Versions/4.4-arm64/Reso…
# ℹ 14 more rows
…
